1 1989
2 1992
3 1990
4 1981
6 1991
7 1997
8 1991
9 1988
10 1990
11 1991
12 1992
13 1989
14 1989
15 1986
16 1992
17 1990
18 1992
19 1986
20 1985
21 1995
22 1993
23 1987
24 1997
25 1994
26 1991
27 1992
28 1992
29 1992